%!PS-Adobe-3.0 EPSF-3.0
%%Creator: cairo 1.10.2 (http://cairographics.org)
%%CreationDate: Wed Dec 19 09:09:48 2012
%%Pages: 1
%%BoundingBox: 0 -1 140 15
%%DocumentData: Clean7Bit
%%LanguageLevel: 2
%%EndComments
%%BeginProlog
/cairo_eps_state save def
/dict_count countdictstack def
/op_count count 1 sub def
userdict begin
/q { gsave } bind def
/Q { grestore } bind def
/cm { 6 array astore concat } bind def
/w { setlinewidth } bind def
/J { setlinecap } bind def
/j { setlinejoin } bind def
/M { setmiterlimit } bind def
/d { setdash } bind def
/m { moveto } bind def
/l { lineto } bind def
/c { curveto } bind def
/h { closepath } bind def
/re { exch dup neg 3 1 roll 5 3 roll moveto 0 rlineto
      0 exch rlineto 0 rlineto closepath } bind def
/S { stroke } bind def
/f { fill } bind def
/f* { eofill } bind def
/n { newpath } bind def
/W { clip } bind def
/W* { eoclip } bind def
/BT { } bind def
/ET { } bind def
/pdfmark where { pop globaldict /?pdfmark /exec load put }
    { globaldict begin /?pdfmark /pop load def /pdfmark
    /cleartomark load def end } ifelse
/BDC { mark 3 1 roll /BDC pdfmark } bind def
/EMC { mark /EMC pdfmark } bind def
/cairo_store_point { /cairo_point_y exch def /cairo_point_x exch def } def
/Tj { show currentpoint cairo_store_point } bind def
/TJ {
  {
    dup
    type /stringtype eq
    { show } { -0.001 mul 0 cairo_font_matrix dtransform rmoveto } ifelse
  } forall
  currentpoint cairo_store_point
} bind def
/cairo_selectfont { cairo_font_matrix aload pop pop pop 0 0 6 array astore
    cairo_font exch selectfont cairo_point_x cairo_point_y moveto } bind def
/Tf { pop /cairo_font exch def /cairo_font_matrix where
      { pop cairo_selectfont } if } bind def
/Td { matrix translate cairo_font_matrix matrix concatmatrix dup
      /cairo_font_matrix exch def dup 4 get exch 5 get cairo_store_point
      /cairo_font where { pop cairo_selectfont } if } bind def
/Tm { 2 copy 8 2 roll 6 array astore /cairo_font_matrix exch def
      cairo_store_point /cairo_font where { pop cairo_selectfont } if } bind def
/g { setgray } bind def
/rg { setrgbcolor } bind def
/d1 { setcachedevice } bind def
%%EndProlog
%%Page: 1 1
%%BeginPageSetup
%%PageBoundingBox: 0 -1 140 15
%%EndPageSetup
q 0 -1 140 16 rectclip q
0 14.4 140 -15 re W n
0.2 g
15.305 10.47 m 16.273 10.47 l 17.43 6.58 l 17.555 6.142 17.668 5.74 
17.773 5.377 c 17.875 5.009 17.996 4.615 18.133 4.189 c 18.164 4.189 l 
18.234 4.396 18.297 4.599 18.352 4.798 c 18.414 4.994 18.469 5.189 
18.523 5.377 c 18.574 5.564 18.625 5.755 18.68 5.955 c 18.742 6.15 
18.805 6.361 18.867 6.58 c 20.023 10.47 l 20.945 10.47 l 18.664 3.252 l 
17.602 3.252 l h
22.047 10.47 m 22.969 10.47 l 22.969 3.252 l 22.047 3.252 l h
25.891 7.048 m 27.109 7.048 l 27.672 7.048 28.098 7.162 28.391 7.392 c 
28.691 7.619 28.844 7.97 28.844 8.439 c 28.844 8.916 28.691 9.252 
28.391 9.439 c 28.098 9.634 27.672 9.736 27.109 9.736 c 25.891 9.736 l 
h
28.938 3.252 m 27.188 6.298 l 25.891 6.298 l 25.891 3.252 l 24.969 
3.252 l 24.969 10.47 l 27.234 10.47 l 27.598 10.47 27.938 10.431 28.25 
10.361 c 28.562 10.287 28.828 10.166 29.047 10.002 c 29.273 9.845 
29.445 9.634 29.562 9.377 c 29.688 9.127 29.75 8.814 29.75 8.439 c 
29.75 7.877 29.602 7.423 29.312 7.08 c 29.02 6.744 28.629 6.517 28.141 
6.392 c 29.984 3.252 l h
32.789 9.705 m 30.602 9.705 l 30.602 10.47 l 35.883 10.47 l 35.883 
9.705 l 33.695 9.705 l 33.695 3.252 l 32.789 3.252 l h
37.262 10.47 m 38.184 10.47 l 38.184 6.205 l 38.184 5.775 38.223 5.416 
38.309 5.127 c 38.402 4.834 38.52 4.599 38.668 4.423 c 38.824 4.244 39 
4.115 39.199 4.033 c 39.406 3.959 39.625 3.923 39.855 3.923 c 40.105 
3.923 40.332 3.959 40.543 4.033 c 40.75 4.115 40.926 4.244 41.074 4.423 
c 41.23 4.599 41.348 4.834 41.434 5.127 c 41.527 5.416 41.574 5.775 
41.574 6.205 c 41.574 10.47 l 42.449 10.47 l 42.449 6.236 l 42.449 5.65 
42.379 5.162 42.246 4.767 c 42.121 4.369 41.941 4.048 41.715 3.798 c 
41.484 3.556 41.207 3.384 40.887 3.283 c 40.562 3.181 40.219 3.127 
39.855 3.127 c 39.488 3.127 39.145 3.181 38.824 3.283 c 38.512 3.384 
38.234 3.556 37.996 3.798 c 37.766 4.048 37.582 4.369 37.449 4.767 c 
37.324 5.162 37.262 5.65 37.262 6.236 c h
47.43 6.189 m 47.086 7.283 l 46.961 7.689 46.836 8.087 46.711 8.486 c 
46.594 8.892 46.48 9.302 46.367 9.72 c 46.32 9.72 l 46.203 9.302 46.086 
8.892 45.961 8.486 c 45.844 8.087 45.73 7.689 45.617 7.283 c 45.258 
6.189 l h
47.648 5.455 m 45.023 5.455 l 44.336 3.252 l 43.398 3.252 l 45.836 
10.47 l 46.867 10.47 l 49.32 3.252 l 48.352 3.252 l h
50.438 10.47 m 51.359 10.47 l 51.359 4.033 l 54.516 4.033 l 54.516 
3.252 l 50.438 3.252 l h
50.438 10.47 m f
104.34 6.341 m 104.34 6.654 104.387 6.935 104.48 7.185 c 104.574 7.443 
104.699 7.662 104.855 7.841 c 105.012 8.017 105.188 8.154 105.387 8.248 
c 105.594 8.341 105.809 8.388 106.027 8.388 c 106.254 8.388 106.449 
8.345 106.605 8.263 c 106.77 8.189 106.941 8.08 107.121 7.935 c 107.09 
8.607 l 107.09 10.107 l 107.746 10.107 l 107.746 4.404 l 107.199 4.404 
l 107.152 4.857 l 107.121 4.857 l 106.965 4.709 106.785 4.58 106.59 
4.466 c 106.391 4.365 106.176 4.31 105.949 4.31 c 105.457 4.31 105.066 
4.482 104.777 4.826 c 104.484 5.177 104.34 5.685 104.34 6.341 c h
105.027 6.341 m 105.027 5.873 105.113 5.505 105.293 5.248 c 105.48 
4.986 105.746 4.857 106.09 4.857 c 106.277 4.857 106.449 4.896 106.605 
4.982 c 106.762 5.076 106.922 5.209 107.09 5.388 c 107.09 7.435 l 
106.922 7.58 106.762 7.685 106.605 7.748 c 106.457 7.81 106.301 7.841 
106.137 7.841 c 105.98 7.841 105.832 7.802 105.699 7.732 c 105.562 
7.658 105.441 7.552 105.34 7.42 c 105.246 7.295 105.168 7.138 105.105 
6.951 c 105.051 6.771 105.027 6.568 105.027 6.341 c h
109.605 5.42 m 109.605 5.834 109.793 6.158 110.168 6.388 c 110.551 
6.615 111.16 6.779 111.996 6.873 c 111.996 6.986 111.98 7.099 111.949 
7.216 c 111.926 7.341 111.887 7.443 111.824 7.529 c 111.762 7.623 
111.676 7.693 111.574 7.748 c 111.48 7.81 111.355 7.841 111.199 7.841 c 
110.969 7.841 110.754 7.798 110.559 7.716 c 110.359 7.63 110.184 7.537 
110.027 7.435 c 109.762 7.888 l 109.949 8.002 110.172 8.111 110.434 
8.216 c 110.691 8.33 110.98 8.388 111.293 8.388 c 111.77 8.388 112.113 
8.24 112.324 7.951 c 112.543 7.658 112.652 7.271 112.652 6.795 c 
112.652 4.404 l 112.105 4.404 l 112.043 4.873 l 112.027 4.873 l 111.84 
4.716 111.637 4.58 111.418 4.466 c 111.207 4.365 110.984 4.31 110.746 
4.31 c 110.41 4.31 110.137 4.404 109.918 4.591 c 109.707 4.787 109.605 
5.064 109.605 5.42 c h
110.246 5.466 m 110.246 5.236 110.309 5.076 110.434 4.982 c 110.566 
4.888 110.734 4.841 110.934 4.841 c 111.121 4.841 111.297 4.88 111.465 
4.966 c 111.629 5.06 111.809 5.189 111.996 5.357 c 111.996 6.435 l 
111.672 6.392 111.395 6.341 111.168 6.279 c 110.949 6.224 110.766 6.158 
110.621 6.076 c 110.484 5.99 110.387 5.896 110.324 5.795 c 110.27 5.689 
110.246 5.58 110.246 5.466 c h
114.734 7.763 m 114.156 7.763 l 114.156 8.248 l 114.766 8.295 l 114.844 
9.373 l 115.406 9.373 l 115.406 8.295 l 116.453 8.295 l 116.453 7.763 l 
115.406 7.763 l 115.406 5.591 l 115.406 5.349 115.445 5.162 115.531 
5.029 c 115.625 4.904 115.781 4.841 116 4.841 c 116.07 4.841 116.145 
4.849 116.219 4.873 c 116.301 4.892 116.375 4.92 116.438 4.951 c 
116.562 4.451 l 116.457 4.408 116.344 4.38 116.219 4.357 c 116.094 
4.326 115.969 4.31 115.844 4.31 c 115.633 4.31 115.457 4.341 115.312 
4.404 c 115.176 4.466 115.062 4.552 114.969 4.67 c 114.883 4.783 114.82 
4.92 114.781 5.076 c 114.75 5.232 114.734 5.408 114.734 5.607 c h
117.746 5.42 m 117.746 5.834 117.934 6.158 118.309 6.388 c 118.691 
6.615 119.301 6.779 120.137 6.873 c 120.137 6.986 120.121 7.099 120.09 
7.216 c 120.066 7.341 120.027 7.443 119.965 7.529 c 119.902 7.623 
119.816 7.693 119.715 7.748 c 119.621 7.81 119.496 7.841 119.34 7.841 c 
119.109 7.841 118.895 7.798 118.699 7.716 c 118.5 7.63 118.324 7.537 
118.168 7.435 c 117.902 7.888 l 118.09 8.002 118.312 8.111 118.574 
8.216 c 118.832 8.33 119.121 8.388 119.434 8.388 c 119.91 8.388 120.254 
8.24 120.465 7.951 c 120.684 7.658 120.793 7.271 120.793 6.795 c 
120.793 4.404 l 120.246 4.404 l 120.184 4.873 l 120.168 4.873 l 119.98 
4.716 119.777 4.58 119.559 4.466 c 119.348 4.365 119.125 4.31 118.887 
4.31 c 118.551 4.31 118.277 4.404 118.059 4.591 c 117.848 4.787 117.746 
5.064 117.746 5.42 c h
118.387 5.466 m 118.387 5.236 118.449 5.076 118.574 4.982 c 118.707 
4.888 118.875 4.841 119.074 4.841 c 119.262 4.841 119.438 4.88 119.605 
4.966 c 119.77 5.06 119.949 5.189 120.137 5.357 c 120.137 6.435 l 
119.812 6.392 119.535 6.341 119.309 6.279 c 119.09 6.224 118.906 6.158 
118.762 6.076 c 118.625 5.99 118.527 5.896 118.465 5.795 c 118.41 5.689 
118.387 5.58 118.387 5.466 c h
122.766 10.107 m 123.422 10.107 l 123.422 8.545 l 123.406 7.841 l 
123.582 7.998 123.773 8.127 123.984 8.232 c 124.191 8.334 124.406 8.388 
124.625 8.388 c 124.875 8.388 125.094 8.341 125.281 8.248 c 125.477 
8.154 125.641 8.017 125.766 7.841 c 125.898 7.673 126 7.466 126.062 
7.216 c 126.133 6.974 126.172 6.709 126.172 6.42 c 126.172 6.084 
126.125 5.787 126.031 5.529 c 125.938 5.267 125.812 5.045 125.656 4.857 
c 125.5 4.677 125.32 4.545 125.125 4.451 c 124.926 4.357 124.711 4.31 
124.484 4.31 c 124.305 4.31 124.117 4.353 123.922 4.435 c 123.723 4.517 
123.539 4.638 123.375 4.795 c 123.344 4.795 l 123.297 4.404 l 122.766 
4.404 l h
123.422 5.263 m 123.586 5.115 123.754 5.013 123.922 4.951 c 124.098 
4.888 124.25 4.857 124.375 4.857 c 124.531 4.857 124.676 4.892 124.812 
4.966 c 124.945 5.037 125.062 5.138 125.156 5.263 c 125.258 5.396 
125.336 5.56 125.391 5.748 c 125.453 5.943 125.484 6.162 125.484 6.404 
c 125.484 6.611 125.461 6.802 125.422 6.982 c 125.391 7.158 125.332 
7.31 125.25 7.435 c 125.164 7.56 125.055 7.658 124.922 7.732 c 124.797 
7.802 124.645 7.841 124.469 7.841 c 124.145 7.841 123.797 7.662 123.422 
7.31 c h
127.641 5.42 m 127.641 5.834 127.828 6.158 128.203 6.388 c 128.586 
6.615 129.195 6.779 130.031 6.873 c 130.031 6.986 130.016 7.099 129.984 
7.216 c 129.961 7.341 129.922 7.443 129.859 7.529 c 129.797 7.623 
129.711 7.693 129.609 7.748 c 129.516 7.81 129.391 7.841 129.234 7.841 
c 129.004 7.841 128.789 7.798 128.594 7.716 c 128.395 7.63 128.219 
7.537 128.062 7.435 c 127.797 7.888 l 127.984 8.002 128.207 8.111 
128.469 8.216 c 128.727 8.33 129.016 8.388 129.328 8.388 c 129.805 
8.388 130.148 8.24 130.359 7.951 c 130.578 7.658 130.688 7.271 130.688 
6.795 c 130.688 4.404 l 130.141 4.404 l 130.078 4.873 l 130.062 4.873 l 
129.875 4.716 129.672 4.58 129.453 4.466 c 129.242 4.365 129.02 4.31 
128.781 4.31 c 128.445 4.31 128.172 4.404 127.953 4.591 c 127.742 4.787 
127.641 5.064 127.641 5.42 c h
128.281 5.466 m 128.281 5.236 128.344 5.076 128.469 4.982 c 128.602 
4.888 128.77 4.841 128.969 4.841 c 129.156 4.841 129.332 4.88 129.5 
4.966 c 129.664 5.06 129.844 5.189 130.031 5.357 c 130.031 6.435 l 
129.707 6.392 129.43 6.341 129.203 6.279 c 128.984 6.224 128.801 6.158 
128.656 6.076 c 128.52 5.99 128.422 5.896 128.359 5.795 c 128.305 5.689 
128.281 5.58 128.281 5.466 c h
132.547 5.279 m 132.723 5.142 132.898 5.033 133.078 4.951 c 133.254 
4.865 133.461 4.826 133.703 4.826 c 133.953 4.826 134.141 4.88 134.266 
4.998 c 134.398 5.111 134.469 5.255 134.469 5.435 c 134.469 5.529 
134.438 5.611 134.375 5.685 c 134.32 5.767 134.254 5.834 134.172 5.888 
c 134.098 5.939 134.004 5.986 133.891 6.029 c 133.785 6.08 133.68 6.127 
133.578 6.17 c 133.441 6.209 133.301 6.263 133.156 6.326 c 133.02 6.388 
132.895 6.459 132.781 6.545 c 132.676 6.638 132.586 6.74 132.516 6.857 
c 132.453 6.97 132.422 7.111 132.422 7.279 c 132.422 7.435 132.445 7.58 
132.5 7.716 c 132.562 7.849 132.648 7.966 132.766 8.06 c 132.879 8.162 
133.02 8.24 133.188 8.295 c 133.352 8.357 133.539 8.388 133.75 8.388 c 
134 8.388 134.223 8.345 134.422 8.263 c 134.629 8.177 134.805 8.076 
134.953 7.951 c 134.641 7.529 l 134.516 7.63 134.379 7.716 134.234 
7.779 c 134.086 7.841 133.93 7.873 133.766 7.873 c 133.516 7.873 
133.332 7.814 133.219 7.701 c 133.102 7.595 133.047 7.466 133.047 7.31 
c 133.047 7.224 133.066 7.146 133.109 7.076 c 133.16 7.013 133.227 
6.955 133.312 6.904 c 133.395 6.849 133.488 6.802 133.594 6.763 c 
133.695 6.72 133.801 6.677 133.906 6.638 c 134.051 6.584 134.191 6.529 
134.328 6.466 c 134.473 6.412 134.598 6.341 134.703 6.248 c 134.816 
6.162 134.91 6.06 134.984 5.935 c 135.055 5.81 135.094 5.654 135.094 
5.466 c 135.094 5.31 135.062 5.158 135 5.013 c 134.938 4.877 134.844 
4.755 134.719 4.654 c 134.602 4.548 134.457 4.466 134.281 4.404 c 
134.102 4.341 133.898 4.31 133.672 4.31 c 133.391 4.31 133.125 4.357 
132.875 4.451 c 132.625 4.552 132.406 4.685 132.219 4.841 c h
136.477 6.341 m 136.477 6.662 136.523 6.951 136.617 7.201 c 136.711 
7.451 136.84 7.662 137.008 7.841 c 137.172 8.017 137.359 8.154 137.57 
8.248 c 137.777 8.341 137.992 8.388 138.211 8.388 c 138.461 8.388 
138.68 8.345 138.867 8.263 c 139.062 8.177 139.227 8.052 139.352 7.888 
c 139.484 7.732 139.586 7.537 139.648 7.31 c 139.719 7.091 139.758 
6.841 139.758 6.56 c 139.758 6.412 139.75 6.295 139.742 6.201 c 137.117 
6.201 l 137.148 5.783 137.277 5.451 137.508 5.201 c 137.734 4.959 
138.039 4.841 138.414 4.841 c 138.602 4.841 138.773 4.865 138.93 4.92 c 
139.086 4.97 139.234 5.045 139.383 5.138 c 139.617 4.701 l 139.438 
4.595 139.246 4.502 139.039 4.42 c 138.828 4.349 138.594 4.31 138.336 
4.31 c 138.074 4.31 137.828 4.357 137.602 4.451 c 137.371 4.545 137.172 
4.673 137.008 4.841 c 136.84 5.017 136.711 5.232 136.617 5.482 c 
136.523 5.732 136.477 6.017 136.477 6.341 c h
139.195 6.638 m 139.195 7.033 139.105 7.334 138.93 7.545 c 138.762 
7.763 138.527 7.873 138.227 7.873 c 138.09 7.873 137.961 7.841 137.836 
7.779 c 137.711 7.724 137.594 7.646 137.492 7.545 c 137.387 7.439 
137.305 7.31 137.242 7.154 c 137.18 7.005 137.137 6.834 137.117 6.638 c 
h
139.195 6.638 m f
1 0.137255 0 rg
53.09 4.83 m 53.348 4.556 53.652 4.337 53.996 4.173 c 54.34 4.005 
54.703 3.923 55.09 3.923 c 55.566 3.923 55.938 4.025 56.199 4.236 c 
56.457 4.455 56.59 4.74 56.59 5.095 c 56.59 5.283 56.559 5.439 56.496 
5.564 c 56.434 5.697 56.344 5.806 56.23 5.892 c 56.125 5.986 56 6.068 
55.855 6.142 c 55.707 6.212 55.551 6.291 55.387 6.377 c 54.355 6.83 l 
54.176 6.9 54 6.99 53.824 7.095 c 53.656 7.197 53.5 7.322 53.355 7.47 c 
53.219 7.615 53.105 7.787 53.012 7.986 c 52.926 8.181 52.887 8.416 
52.887 8.689 c 52.887 8.959 52.941 9.209 53.059 9.439 c 53.172 9.677 
53.328 9.88 53.527 10.048 c 53.734 10.224 53.973 10.361 54.246 10.455 c 
54.527 10.548 54.832 10.595 55.168 10.595 c 55.594 10.595 55.988 10.509 
56.355 10.345 c 56.719 10.189 57.031 9.974 57.293 9.705 c 56.809 9.111 
l 56.578 9.33 56.328 9.494 56.059 9.611 c 55.785 9.736 55.488 9.798 
55.168 9.798 c 54.75 9.798 54.418 9.705 54.168 9.517 c 53.926 9.33 
53.809 9.068 53.809 8.736 c 53.809 8.556 53.844 8.408 53.918 8.283 c 
53.988 8.166 54.082 8.064 54.199 7.97 c 54.312 7.884 54.438 7.806 
54.574 7.736 c 54.719 7.662 54.863 7.599 55.012 7.548 c 56.043 7.095 l 
56.25 7.009 56.441 6.912 56.621 6.798 c 56.809 6.681 56.965 6.548 57.09 
6.392 c 57.223 6.244 57.328 6.072 57.402 5.877 c 57.484 5.677 57.527 
5.443 57.527 5.173 c 57.527 4.892 57.469 4.627 57.355 4.377 c 57.238 
4.127 57.074 3.908 56.855 3.72 c 56.645 3.533 56.391 3.384 56.09 3.283 
c 55.785 3.181 55.441 3.127 55.059 3.127 c 54.559 3.127 54.09 3.22 
53.652 3.408 c 53.223 3.595 52.855 3.853 52.543 4.189 c h
59.055 10.47 m 59.977 10.47 l 59.977 6.845 l 60.008 6.845 l 63.008 
10.47 l 64.055 10.47 l 61.789 7.72 l 64.398 3.252 l 63.367 3.252 l 
61.211 7.002 l 59.977 5.533 l 59.977 3.252 l 59.055 3.252 l h
65.559 10.47 m 69.715 10.47 l 69.715 9.705 l 66.48 9.705 l 66.48 7.439 
l 69.215 7.439 l 69.215 6.658 l 66.48 6.658 l 66.48 4.033 l 69.824 
4.033 l 69.824 3.252 l 65.559 3.252 l h
71.469 10.47 m 72.391 10.47 l 72.391 4.033 l 75.547 4.033 l 75.547 
3.252 l 71.469 3.252 l h
76.91 10.47 m 81.066 10.47 l 81.066 9.705 l 77.832 9.705 l 77.832 7.439 
l 80.566 7.439 l 80.566 6.658 l 77.832 6.658 l 77.832 4.033 l 81.176 
4.033 l 81.176 3.252 l 76.91 3.252 l h
84.332 9.705 m 82.145 9.705 l 82.145 10.47 l 87.426 10.47 l 87.426 
9.705 l 85.238 9.705 l 85.238 3.252 l 84.332 3.252 l h
91.242 3.127 m 90.793 3.127 90.375 3.212 89.992 3.377 c 89.617 3.552 
89.289 3.802 89.008 4.127 c 88.734 4.459 88.523 4.853 88.367 5.314 c 
88.219 5.783 88.148 6.306 88.148 6.892 c 88.148 7.474 88.219 7.994 
88.367 8.455 c 88.523 8.912 88.734 9.298 89.008 9.611 c 89.289 9.931 
89.617 10.177 89.992 10.345 c 90.375 10.509 90.793 10.595 91.242 10.595 
c 91.688 10.595 92.102 10.505 92.477 10.33 c 92.859 10.162 93.188 9.916 
93.461 9.595 c 93.742 9.283 93.953 8.896 94.102 8.439 c 94.246 7.978 
94.32 7.462 94.32 6.892 c 94.32 6.306 94.246 5.783 94.102 5.314 c 
93.953 4.853 93.742 4.459 93.461 4.127 c 93.188 3.802 92.859 3.552 
92.477 3.377 c 92.102 3.212 91.688 3.127 91.242 3.127 c h
91.242 3.923 m 91.562 3.923 91.855 3.99 92.117 4.127 c 92.375 4.271 
92.602 4.474 92.789 4.736 c 92.977 4.994 93.121 5.302 93.227 5.658 c 
93.328 6.021 93.383 6.431 93.383 6.892 c 93.383 7.337 93.328 7.74 
93.227 8.095 c 93.121 8.459 92.977 8.767 92.789 9.017 c 92.602 9.267 
92.375 9.459 92.117 9.595 c 91.855 9.728 91.562 9.798 91.242 9.798 c 
90.918 9.798 90.625 9.728 90.367 9.595 c 90.105 9.459 89.883 9.267 
89.695 9.017 c 89.508 8.767 89.359 8.459 89.258 8.095 c 89.152 7.74 
89.102 7.337 89.102 6.892 c 89.102 6.431 89.152 6.021 89.258 5.658 c 
89.359 5.302 89.508 4.994 89.695 4.736 c 89.883 4.474 90.105 4.271 
90.367 4.127 c 90.625 3.99 90.918 3.923 91.242 3.923 c h
96.027 10.47 m 96.98 10.47 l 99.59 5.939 l 100.371 4.439 l 100.418 
4.439 l 100.395 4.802 100.371 5.181 100.34 5.58 c 100.309 5.974 100.293 
6.361 100.293 6.736 c 100.293 10.47 l 101.168 10.47 l 101.168 3.252 l 
100.215 3.252 l 97.621 7.798 l 96.84 9.283 l 96.793 9.283 l 96.812 
8.916 96.832 8.541 96.855 8.158 c 96.887 7.783 96.902 7.4 96.902 7.017 
c 96.902 3.252 l 96.027 3.252 l h
96.027 10.47 m f
0.00784314 0.317647 0.403922 rg
7.285 1.537 m 10.578 1.537 13.258 4.216 13.254 7.509 c 13.254 10.802 
10.578 13.482 7.285 13.482 c 3.992 13.482 1.312 10.802 1.312 7.509 c 
1.312 4.216 3.992 1.537 7.285 1.537 c 14.172 7.509 m 14.172 3.705 11.09 
0.619 7.285 0.619 c 3.48 0.619 0.395 3.705 0.395 7.509 c 0.395 11.314 
3.48 14.4 7.285 14.4 c 11.09 14.4 14.172 11.314 14.172 7.509 c f
0.0196078 0.490196 0.623529 rg
12.082 9.107 m 9.461 8.236 l 9.234 8.92 8.695 9.459 8.012 9.689 c 8.883 
12.306 l 9.617 12.06 10.293 11.646 10.859 11.084 c 11.422 10.517 11.836 
9.845 12.082 9.107 c f
0.129412 0.392157 0.466667 rg
11.328 8.373 m 11.391 8.091 11.422 7.806 11.422 7.509 c 11.422 6.408 
10.992 5.369 10.207 4.587 c 9.426 3.806 8.387 3.373 7.285 3.373 c 6.992 
3.373 6.703 3.404 6.422 3.466 c 7.008 5.228 l 7.098 5.22 7.191 5.212 
7.285 5.212 c 8.551 5.212 9.582 6.24 9.582 7.509 c 9.582 7.603 9.574 
7.693 9.562 7.787 c h
11.328 8.373 m f
0.160784 0.184314 0.423529 rg
7.285 8.888 m 8.043 8.888 8.66 8.271 8.66 7.509 c 8.66 6.748 8.043 
6.134 7.285 6.134 c 6.523 6.134 5.906 6.748 5.906 7.509 c 5.906 8.271 
6.523 8.888 7.285 8.888 c f
0.129412 0.392157 0.466667 rg
8.148 11.556 m 7.559 9.791 l 7.469 9.802 7.379 9.806 7.285 9.806 c 
6.016 9.806 4.988 8.779 4.988 7.509 c 4.988 7.416 4.992 7.326 5.004 
7.236 c 3.238 6.646 l 3.18 6.927 3.148 7.216 3.148 7.509 c 3.148 8.611 
3.578 9.65 4.363 10.435 c 5.145 11.216 6.18 11.646 7.285 11.646 c 7.578 
11.646 7.867 11.615 8.148 11.556 c f
1 0.137255 0 rg
4.691 0.002 m 2.215 0.638 0.84 2.779 0 5.068 c 5.07 6.9 l 5.41 5.634 
6.07 5.56 6.609 5.334 c f
Q Q
showpage
%%Trailer
count op_count sub {pop} repeat
countdictstack dict_count sub {end} repeat
cairo_eps_state restore
%%EOF
