%!PS-Adobe-3.0 EPSF-3.0
%%Creator: cairo 1.12.14 (http://cairographics.org)
%%CreationDate: Thu Mar  6 17:20:22 2014
%%Pages: 1
%%DocumentData: Clean7Bit
%%LanguageLevel: 2
%%BoundingBox: 0 -1 319 97
%%EndComments
%%BeginProlog
save
50 dict begin
/q { gsave } bind def
/Q { grestore } bind def
/cm { 6 array astore concat } bind def
/w { setlinewidth } bind def
/J { setlinecap } bind def
/j { setlinejoin } bind def
/M { setmiterlimit } bind def
/d { setdash } bind def
/m { moveto } bind def
/l { lineto } bind def
/c { curveto } bind def
/h { closepath } bind def
/re { exch dup neg 3 1 roll 5 3 roll moveto 0 rlineto
      0 exch rlineto 0 rlineto closepath } bind def
/S { stroke } bind def
/f { fill } bind def
/f* { eofill } bind def
/n { newpath } bind def
/W { clip } bind def
/W* { eoclip } bind def
/BT { } bind def
/ET { } bind def
/pdfmark where { pop globaldict /?pdfmark /exec load put }
    { globaldict begin /?pdfmark /pop load def /pdfmark
    /cleartomark load def end } ifelse
/BDC { mark 3 1 roll /BDC pdfmark } bind def
/EMC { mark /EMC pdfmark } bind def
/cairo_store_point { /cairo_point_y exch def /cairo_point_x exch def } def
/Tj { show currentpoint cairo_store_point } bind def
/TJ {
  {
    dup
    type /stringtype eq
    { show } { -0.001 mul 0 cairo_font_matrix dtransform rmoveto } ifelse
  } forall
  currentpoint cairo_store_point
} bind def
/cairo_selectfont { cairo_font_matrix aload pop pop pop 0 0 6 array astore
    cairo_font exch selectfont cairo_point_x cairo_point_y moveto } bind def
/Tf { pop /cairo_font exch def /cairo_font_matrix where
      { pop cairo_selectfont } if } bind def
/Td { matrix translate cairo_font_matrix matrix concatmatrix dup
      /cairo_font_matrix exch def dup 4 get exch 5 get cairo_store_point
      /cairo_font where { pop cairo_selectfont } if } bind def
/Tm { 2 copy 8 2 roll 6 array astore /cairo_font_matrix exch def
      cairo_store_point /cairo_font where { pop cairo_selectfont } if } bind def
/g { setgray } bind def
/rg { setrgbcolor } bind def
/d1 { setcachedevice } bind def
%%EndProlog
%%Page: 1 1
%%BeginPageSetup
%%PageBoundingBox: 0 -1 319 97
%%EndPageSetup
q 0 -1 319 98 rectclip q
0.137255 0.121569 0.12549 rg
3.605 29.488 m 3.43 29.488 3.391 29.359 3.391 29.356 c 3.391 23.484 l 3.391
 23.152 3.449 22.813 4.156 22.637 c 9.375 21.238 17.473 20.719 21.355 20.719
 c 32.312 20.719 39.121 26.023 39.121 34.566 c 39.121 38.801 38.449 43.348
 30.406 48.231 c 17.559 56.074 l 15.191 57.496 12.941 58.848 12.941 61.332
 c 12.941 66.902 18.699 66.902 21.156 66.902 c 26.699 66.902 34.531 66.133
 37.441 65.727 c 37.73 65.727 l 37.773 65.703 37.848 65.813 37.848 66.137
 c 37.848 71.824 l 37.848 72.356 37.699 72.547 37.184 72.676 c 31.992 73.793
 27.695 74.59 20.082 74.59 c 8.52 74.59 2.898 70.254 2.898 61.332 c 2.898
 56.527 5.719 51.93 10.445 49.039 c 23.879 40.801 l 27.199 38.723 28.883
 37.191 28.883 34.566 c 28.883 30.25 26.367 28.41 20.473 28.41 c 17.426 
28.41 8.648 28.902 3.91 29.488 c h
21.355 17.82 m 17.164 17.82 8.934 18.356 3.43 19.828 c 1.598 20.289 0.488
 21.656 0.488 23.484 c 0.488 29.367 l 0.488 31.031 1.887 32.387 3.605 32.387
 c 4 32.387 l 4.059 32.387 4.121 32.383 4.18 32.375 c 8.719 31.809 17.543
 31.309 20.473 31.309 c 25.98 31.309 25.98 32.965 25.98 34.566 c 25.98 35.582
 25.438 36.406 22.352 38.336 c 8.93 46.566 l 3.34 49.988 0 55.508 0 61.332
 c 0 72.055 6.758 77.492 20.082 77.492 c 27.969 77.492 32.602 76.629 37.84
 75.496 c 39.68 75.039 40.75 73.672 40.75 71.824 c 40.75 66.137 l 40.75 
64.156 39.535 62.824 37.73 62.824 c 37.336 62.824 l 37.27 62.824 37.199 
62.828 37.133 62.84 c 34.379 63.231 26.621 64 21.156 64 c 15.844 64 15.844
 62.523 15.844 61.332 c 15.844 60.613 16.883 59.863 19.062 58.555 c 31.914
 50.707 l 40.797 45.313 42.023 39.762 42.023 34.566 c 42.023 24.391 33.91
 17.82 21.355 17.82 c f
53.414 93.813 m 53.113 93.813 52.805 93.551 52.805 93.301 c 52.805 84.668
 l 52.805 84.418 53.113 84.16 53.414 84.16 c 62.926 84.16 l 63.203 84.16
 63.438 84.395 63.438 84.668 c 63.438 93.301 l 63.438 93.574 63.203 93.813
 62.926 93.813 c h
62.926 81.258 m 53.414 81.258 l 51.512 81.258 49.906 82.82 49.906 84.668
 c 49.906 93.301 l 49.906 95.148 51.512 96.711 53.414 96.711 c 62.926 96.711
 l 64.805 96.711 66.336 95.18 66.336 93.301 c 66.336 84.668 l 66.336 82.789
 64.805 81.258 62.926 81.258 c h
53.609 73.906 m 53.332 73.906 53.102 73.672 53.102 73.395 c 53.102 22.113
 l 53.102 21.809 53.355 21.504 53.609 21.504 c 62.633 21.504 l 62.879 21.504
 63.145 21.816 63.145 22.113 c 63.145 73.395 l 63.145 73.672 62.91 73.906
 62.633 73.906 c h
62.633 18.602 m 53.609 18.602 l 51.762 18.602 50.199 20.211 50.199 22.113
 c 50.199 73.395 l 50.199 75.273 51.73 76.805 53.609 76.805 c 62.633 76.805
 l 64.512 76.805 66.043 75.273 66.043 73.395 c 66.043 22.113 l 66.043 20.211
 64.48 18.602 62.633 18.602 c f
110.676 20.543 m 108.418 19.953 104.008 19.27 98.023 19.27 c 85.277 19.27
 75.668 27.113 75.668 43.094 c 75.668 52.215 l 75.668 68.195 85.277 76.039
 98.023 76.039 c 104.008 76.039 108.418 75.356 110.676 74.77 c 112.34 74.375
 112.734 73.785 112.734 72.219 c 112.734 65.844 l 112.734 64.863 111.949
 64.375 110.969 64.375 c 110.676 64.375 l 106.754 64.863 104.398 65.059 
98.023 65.059 c 93.414 65.059 88.613 62.414 88.613 52.215 c 88.613 43.094
 l 88.613 32.898 93.414 30.25 98.023 30.25 c 104.398 30.25 106.754 30.445
 110.676 30.938 c 110.969 30.938 l 111.949 30.938 112.734 30.445 112.734
 29.465 c 112.734 23.09 l 112.734 21.523 112.34 20.934 110.676 20.543 c f
151.559 44.371 m 145.383 44.371 l 136.461 44.371 134.496 41.527 134.496
 36.035 c 134.496 35.645 l 134.496 30.84 136.656 29.563 141.559 29.563 c
 145.086 29.563 148.715 30.742 151.559 32.309 c h
162.539 20.055 m 154.203 20.055 l 153.129 20.055 152.246 20.934 152.246
 22.012 c 152.246 23.582 l 147.734 20.836 143.129 19.27 138.418 19.27 c 
130.281 19.27 121.457 22.406 121.457 35.645 c 121.457 36.035 l 121.457 47.215
 128.32 53 145.383 53 c 151.559 53 l 151.559 57.313 l 151.559 63.688 148.715
 65.258 142.93 65.258 c 136.656 65.258 130.184 64.863 126.945 64.473 c 126.457
 64.473 l 125.477 64.473 124.691 64.766 124.691 66.137 c 124.691 72.414 
l 124.691 73.492 125.281 74.18 126.555 74.473 c 130.477 75.258 136.164 76.039
 142.93 76.039 c 156.855 76.039 164.5 69.863 164.5 57.313 c 164.5 22.012
 l 164.5 20.934 163.621 20.055 162.539 20.055 c f
195.184 19.27 m 191.363 19.27 183.125 19.758 177.637 21.231 c 176.457 21.523
 175.773 22.309 175.773 23.484 c 175.773 29.367 l 175.773 30.152 176.457
 30.938 177.438 30.938 c 177.832 30.938 l 182.535 30.348 191.363 29.859 
194.305 29.859 c 200.383 29.859 201.262 31.918 201.262 34.566 c 201.262 
36.426 200.09 37.606 196.953 39.566 c 183.52 47.801 l 178.711 50.742 175.281
 55.648 175.281 61.332 c 175.281 71.141 181.457 76.039 193.91 76.039 c 201.855
 76.039 206.363 75.16 211.367 74.078 c 212.543 73.785 213.129 73 213.129
 71.824 c 213.129 66.137 l 213.129 64.961 212.543 64.273 211.562 64.273 
c 211.168 64.273 l 208.426 64.668 200.578 65.453 194.988 65.453 c 190.285
 65.453 188.227 64.375 188.227 61.332 c 188.227 59.766 189.695 58.785 192.145
 57.313 c 204.992 49.469 l 213.227 44.469 214.402 39.566 214.402 34.566 
c 214.402 26.035 208.031 19.27 195.184 19.27 c f
0.929412 0.109804 0.141176 rg
307.961 81.516 m 313.047 66.137 309.844 26.059 270.035 10.723 c 248.988
 2.613 227.129 3.066 217.867 13.117 c 226.547 0.098 250.895 -3.98 275.891
 4.297 c 303.699 13.5 321.758 34.481 316.242 51.16 c 310.711 67.84 283.699
 73.895 255.906 64.699 c 255.074 64.422 254.258 64.145 253.461 63.852 c 
267.91 82.129 303.027 96.402 307.961 81.516 c f
241.848 38.023 m 234.555 51.953 247 72.871 269.645 84.734 c 288.574 94.645
 308.629 95.094 318.965 86.859 c 308.688 98.012 285.18 98.324 263.098 86.75
 c 238.523 73.879 225.035 51.191 232.949 36.082 c 240.875 20.973 267.207
 19.148 291.77 32.02 c 292.5 32.406 293.219 32.797 293.93 33.195 c 271.914
 22.531 248.926 24.535 241.848 38.023 c f
Q Q
showpage
%%Trailer
end restore
%%EOF
